2016-01-23 13:18:43;22.80;34.00;4.34
2016-01-23 13:23:44;22.50;34.40;4.14
2016-01-23 13:28:45;22.20;34.80;4.16
2016-01-23 13:33:45;22.30;35.10;4.16
2016-01-23 13:38:46;22.30;35.10;4.16
2016-01-23 13:43:47;22.50;35.20;4.16
2016-01-23 13:48:48;22.60;35.00;4.16
2016-01-23 13:53:49;22.70;34.80;4.16
2016-01-23 13:58:50;22.90;34.70;4.16
2016-01-23 14:03:51;23.00;34.70;4.16
2016-01-23 14:08:51;23.10;34.70;4.16
2016-01-23 14:13:52;23.20;34.60;4.16
2016-01-23 14:18:53;23.30;34.50;4.16
2016-01-23 14:23:54;23.30;34.30;4.16
2016-01-23 14:28:55;23.40;34.30;4.16
2016-01-23 14:33:56;23.40;34.40;4.16
2016-01-23 14:38:57;23.50;34.30;4.15
2016-01-23 14:43:57;23.60;34.20;4.15
2016-01-23 14:48:58;23.60;34.10;4.15
2016-01-23 14:53:59;23.70;34.00;4.15
2016-01-23 14:59:00;23.70;33.90;4.15
2016-01-23 15:04:01;23.80;33.80;4.15
2016-01-23 15:09:02;23.20;34.80;4.15
2016-01-23 15:14:03;22.70;35.60;4.15
2016-01-23 15:19:04;22.40;36.10;4.15
2016-01-23 15:24:04;22.20;36.20;4.15
2016-01-23 15:29:05;22.10;36.40;4.15
2016-01-23 15:34:06;22.00;36.40;4.15
2016-01-23 15:39:07;22.00;36.50;4.15
2016-01-23 15:44:08;22.00;36.50;4.15
2016-01-23 15:49:09;21.90;36.50;4.15
2016-01-23 15:54:10;21.90;36.50;4.15
2016-01-23 15:59:10;21.90;36.60;4.15
2016-01-23 16:04:11;21.90;36.60;4.15
2016-01-23 16:09:12;21.90;36.70;4.15
2016-01-23 16:14:13;21.90;36.60;4.15
2016-01-23 16:19:14;21.90;36.60;4.14
2016-01-23 16:24:15;21.90;36.60;4.15
2016-01-23 16:29:16;21.80;36.60;4.15
2016-01-23 16:34:17;21.90;36.60;4.15
2016-01-23 16:39:18;21.90;36.70;4.15
2016-01-23 16:44:18;21.80;36.60;4.15
2016-01-23 16:49:19;21.90;36.60;4.15
2016-01-23 16:54:20;21.80;36.70;4.14
2016-01-23 16:59:21;21.80;36.70;4.15
2016-01-23 17:04:22;21.90;36.80;4.15
2016-01-23 17:09:23;22.00;36.70;4.14
2016-01-23 17:14:24;22.00;36.60;4.14
2016-01-23 17:19:25;22.00;36.60;4.14
2016-01-23 17:24:25;22.00;36.70;4.14
2016-01-23 17:29:26;22.00;36.60;4.15
2016-01-23 17:34:27;22.00;36.70;4.14
2016-01-23 17:39:28;22.00;36.60;4.15
2016-01-23 17:44:29;22.00;36.60;4.14
2016-01-23 17:49:30;22.00;36.60;4.14
2016-01-23 17:54:31;22.00;36.60;4.15
2016-01-23 17:59:32;22.00;36.60;4.14
2016-01-23 18:04:32;22.00;36.60;4.14
2016-01-23 18:09:33;22.00;36.60;4.14
2016-01-23 18:14:34;22.00;36.60;4.14
2016-01-23 18:19:35;21.90;36.40;4.14
2016-01-23 18:24:36;21.90;37.10;4.14
2016-01-23 18:29:37;22.00;37.90;4.14
2016-01-23 18:34:38;21.90;37.70;4.14
2016-01-23 18:39:39;21.90;37.50;4.14
2016-01-23 18:44:39;21.90;37.50;4.14
2016-01-23 18:49:40;21.80;37.00;4.14
2016-01-23 18:54:41;21.80;37.30;4.14
2016-01-23 18:59:42;21.80;37.30;4.14
2016-01-23 19:04:43;21.80;37.30;4.14
2016-01-23 19:09:44;21.80;37.40;4.14
2016-01-23 19:14:45;21.80;37.20;4.14
2016-01-23 19:19:46;21.80;37.20;4.14
2016-01-23 19:24:46;21.80;37.10;4.14
2016-01-23 19:29:47;21.80;37.30;4.14
2016-01-23 19:34:48;21.80;37.30;4.14
2016-01-23 19:39:49;21.80;37.30;4.14
2016-01-23 19:44:50;21.80;37.20;4.14
2016-01-23 19:49:51;21.70;37.30;4.14
2016-01-23 19:54:52;21.70;37.30;4.14
2016-01-23 19:59:53;21.70;37.20;4.14
2016-01-23 20:08:43;22.00;36.90;4.36
2016-01-23 20:13:44;22.00;37.00;4.14
2016-01-23 20:18:45;22.10;37.70;4.14
2016-01-23 20:23:46;22.00;37.20;4.14
2016-01-23 20:28:46;22.10;37.40;4.14
2016-01-23 20:33:47;22.10;37.50;4.14
2016-01-23 20:38:48;22.00;37.90;4.14
2016-01-23 20:43:49;22.10;38.10;4.14
2016-01-23 20:48:50;22.10;39.50;4.14
2016-01-23 20:53:51;22.30;41.80;4.14
2016-01-23 20:58:52;22.30;43.00;4.14
2016-01-23 21:03:53;22.50;45.70;4.14
2016-01-23 21:08:53;22.50;45.20;4.14
2016-01-23 21:13:54;22.50;44.70;4.14
2016-01-23 21:18:55;22.50;43.90;4.14
2016-01-23 21:23:56;22.50;43.80;4.14
2016-01-23 21:28:57;22.50;43.80;4.14
2016-01-23 21:33:58;22.50;43.60;4.14
2016-01-23 21:38:59;22.50;43.50;4.14
2016-01-23 21:43:59;22.50;43.30;4.14
2016-01-23 21:49:00;22.50;42.90;4.14
2016-01-23 21:54:01;22.50;43.00;4.14
2016-01-23 21:59:02;22.40;43.30;4.14
2016-01-23 22:04:03;22.40;43.30;4.14
2016-01-23 22:09:04;22.40;43.00;4.14
2016-01-23 22:14:05;22.40;43.50;4.14
2016-01-23 22:19:06;22.30;43.50;4.14
2016-01-23 22:24:06;22.40;44.00;4.14
2016-01-23 22:29:07;22.40;43.50;4.14
2016-01-23 22:34:08;22.40;43.50;4.14
2016-01-23 22:39:09;22.40;43.60;4.14
2016-01-23 22:44:10;22.30;43.60;4.14
2016-01-23 22:49:11;22.30;43.80;4.14
2016-01-23 22:54:12;22.30;43.70;4.14
2016-01-23 22:59:13;22.30;44.00;4.14
2016-01-23 23:04:13;22.30;43.90;4.14
2016-01-23 23:09:14;22.30;44.00;4.14
2016-01-23 23:14:15;22.30;44.10;4.14
2016-01-23 23:19:16;22.30;44.20;4.14
2016-01-23 23:24:17;22.30;44.30;4.14
2016-01-23 23:29:18;22.30;44.20;4.14
2016-01-23 23:34:19;22.30;44.20;4.14
2016-01-23 23:39:20;22.30;44.30;4.14
2016-01-23 23:44:21;22.30;44.30;4.14
2016-01-23 23:49:21;22.30;44.40;4.14
2016-01-23 23:54:22;22.30;44.40;4.14
2016-01-23 23:59:23;22.20;44.40;4.14
2016-01-24 00:04:24;22.30;44.60;4.14
2016-01-24 00:09:25;22.30;44.60;4.14
2016-01-24 00:14:26;22.30;44.60;4.14
2016-01-24 00:19:27;22.30;44.60;4.14
2016-01-24 00:24:28;22.30;44.60;4.14
2016-01-24 00:29:29;22.30;45.30;4.14
2016-01-24 00:34:30;22.20;44.60;4.14
2016-01-24 00:39:30;22.20;44.60;4.14
2016-01-24 00:44:31;22.20;44.50;4.14
2016-01-24 00:49:32;22.10;44.70;4.14
2016-01-24 00:54:33;22.10;44.60;4.14
2016-01-24 00:59:34;22.00;44.50;4.14
2016-01-24 01:04:35;22.00;44.50;4.14
2016-01-24 01:09:36;22.00;44.30;4.14
2016-01-24 01:14:37;21.90;44.30;4.14
2016-01-24 01:19:38;21.90;44.20;4.14
2016-01-24 01:24:38;21.90;44.20;4.14
2016-01-24 01:29:39;21.90;44.20;4.14
2016-01-24 01:34:40;21.80;44.00;4.14
2016-01-24 01:39:41;21.80;43.90;4.14
2016-01-24 01:44:42;21.80;43.90;4.14
2016-01-24 01:49:43;21.80;43.90;4.14
2016-01-24 01:54:44;21.80;43.80;4.14
2016-01-24 01:59:45;21.80;43.90;4.14
2016-01-24 02:04:45;21.80;43.90;4.14
2016-01-24 02:09:46;21.80;43.80;4.14
2016-01-24 02:14:47;21.70;43.80;4.14
2016-01-24 02:19:48;21.70;43.70;4.14
2016-01-24 02:24:49;21.70;43.80;4.14
2016-01-24 02:29:50;21.70;43.80;4.14
2016-01-24 02:34:51;21.60;43.70;4.14
2016-01-24 02:39:52;21.60;43.80;4.14
2016-01-24 02:44:52;21.60;43.70;4.14
2016-01-24 02:49:53;21.60;43.50;4.14
2016-01-24 02:54:54;21.60;43.70;4.14
2016-01-24 02:59:55;21.60;43.40;4.14
2016-01-24 03:04:56;21.60;43.50;4.14
2016-01-24 03:09:57;21.60;43.30;4.14
2016-01-24 03:14:58;21.60;43.30;4.14
2016-01-24 03:19:58;21.60;43.30;4.14
2016-01-24 03:24:59;21.50;43.20;4.14
2016-01-24 03:30:00;21.60;43.10;4.14
2016-01-24 03:35:01;21.60;43.10;4.14
2016-01-24 03:40:02;21.60;43.20;4.14
2016-01-24 03:45:03;21.60;43.10;4.14
2016-01-24 03:50:04;21.50;42.90;4.14
2016-01-24 03:55:05;21.50;42.80;4.14
2016-01-24 04:00:05;21.50;43.00;4.14
2016-01-24 04:05:06;21.50;42.90;4.14
2016-01-24 04:10:07;21.50;42.90;4.14
2016-01-24 04:15:08;21.40;42.80;4.14
2016-01-24 04:20:09;21.50;43.00;4.14
2016-01-24 04:25:10;21.40;42.70;4.14
2016-01-24 04:30:11;21.50;42.80;4.14
2016-01-24 04:35:12;21.40;42.70;4.14
2016-01-24 04:40:12;21.40;42.70;4.14
2016-01-24 04:45:13;21.40;42.90;4.14
2016-01-24 04:50:14;21.40;42.80;4.14
2016-01-24 04:55:15;21.40;42.90;4.14
2016-01-24 05:00:16;21.40;42.80;4.14
2016-01-24 05:05:17;21.30;42.70;4.14
2016-01-24 05:10:18;21.40;42.60;4.14
2016-01-24 05:15:19;21.40;42.60;4.14
2016-01-24 05:20:19;21.30;42.50;4.14
2016-01-24 05:25:20;21.30;42.80;4.14
2016-01-24 05:30:21;21.30;42.60;4.14
2016-01-24 05:35:22;21.30;42.70;4.14
2016-01-24 05:40:23;21.30;42.60;4.14
2016-01-24 05:45:24;21.30;42.50;4.14
2016-01-24 05:50:25;21.30;42.50;4.14
2016-01-24 05:55:25;21.30;42.50;4.14
2016-01-24 06:00:26;21.30;42.50;4.14
2016-01-24 06:05:27;21.30;42.50;4.14
2016-01-24 06:10:28;21.30;42.60;4.14
2016-01-24 06:15:29;21.30;42.40;4.14
2016-01-24 06:20:30;21.30;42.50;4.14
2016-01-24 06:25:31;21.30;42.50;4.14
2016-01-24 06:30:32;21.20;42.30;4.14
2016-01-24 06:35:32;21.20;42.40;4.14
2016-01-24 06:40:33;21.20;42.50;4.14
2016-01-24 06:45:34;21.20;42.60;4.14
2016-01-24 06:50:35;21.20;42.30;4.14
2016-01-24 06:55:36;21.20;42.40;4.14
2016-01-24 07:00:37;21.20;42.40;4.14
2016-01-24 07:05:38;21.20;42.20;4.14
2016-01-24 07:10:39;21.10;42.30;4.14
2016-01-24 07:15:39;21.20;42.20;4.14
2016-01-24 07:20:40;21.10;42.10;4.14
2016-01-24 07:25:41;21.20;42.20;4.14
2016-01-24 07:30:42;21.10;42.20;4.14
2016-01-24 07:35:43;21.10;42.10;4.14
2016-01-24 07:40:44;21.10;42.20;4.14
2016-01-24 07:45:45;21.10;42.10;4.14
2016-01-24 07:50:46;21.10;42.20;4.14
2016-01-24 07:55:46;21.10;42.10;4.14
2016-01-24 08:00:47;21.10;42.10;4.14
2016-01-24 08:05:48;21.10;42.10;4.14
2016-01-24 08:10:49;21.10;42.10;4.14
2016-01-24 08:15:50;21.10;42.10;4.14
2016-01-24 08:20:51;21.10;42.10;4.14
2016-01-24 08:25:52;21.10;42.10;4.14
2016-01-24 08:30:53;21.10;42.10;4.14
2016-01-24 08:35:53;21.10;41.90;4.14
2016-01-24 08:40:54;21.10;41.90;4.14
2016-01-24 08:45:55;21.10;41.90;4.14
2016-01-24 08:50:56;21.10;41.90;4.14
2016-01-24 08:55:57;21.10;42.00;4.14
2016-01-24 09:00:58;21.10;41.80;4.14
2016-01-24 09:05:59;21.10;41.90;4.14
2016-01-24 09:11:00;21.10;41.90;4.14
2016-01-24 09:16:00;21.10;41.80;4.14
2016-01-24 09:21:01;21.10;41.70;4.14
2016-01-24 09:26:02;21.10;41.80;4.14
2016-01-24 09:31:03;21.10;42.20;4.14
2016-01-24 09:36:04;21.10;42.20;4.14
2016-01-24 09:41:05;21.10;42.40;4.14
2016-01-24 09:46:06;21.10;42.40;4.14
2016-01-24 09:51:07;21.10;42.40;4.14
2016-01-24 09:56:07;21.10;42.20;4.14
2016-01-24 10:01:08;21.20;42.00;4.14
2016-01-24 10:06:09;21.10;42.00;4.14
2016-01-24 10:11:10;21.20;42.00;4.14
2016-01-24 10:16:11;21.20;42.00;4.14
2016-01-24 10:21:12;21.20;42.20;4.14
2016-01-24 10:26:13;21.30;42.30;4.14
2016-01-24 10:31:14;21.30;42.20;4.14
2016-01-24 10:36:14;21.30;42.30;4.14
2016-01-24 10:41:15;21.30;42.30;4.14
2016-01-24 10:46:16;21.30;42.10;4.14
2016-01-24 10:51:17;21.40;42.40;4.14
2016-01-24 10:56:18;21.40;42.40;4.14
2016-01-24 11:01:19;21.40;42.40;4.14
2016-01-24 11:06:20;21.40;42.30;4.14
2016-01-24 11:11:21;21.40;42.40;4.14
2016-01-24 11:16:22;21.50;42.20;4.14
2016-01-24 11:21:22;21.50;42.30;4.14
2016-01-24 11:26:23;21.50;42.20;4.14
2016-01-24 11:31:24;21.20;41.60;4.14
2016-01-24 11:36:25;20.90;43.20;4.14
2016-01-24 11:41:26;21.30;44.70;4.14
2016-01-24 11:46:27;21.50;45.20;4.14
2016-01-24 11:51:28;21.60;45.50;4.14
2016-01-24 11:56:29;21.70;45.50;4.14
2016-01-24 12:01:29;21.80;45.40;4.14
2016-01-24 12:06:30;21.90;45.60;4.14
2016-01-24 12:11:31;21.90;45.60;4.14
2016-01-24 12:16:32;22.00;45.70;4.14
2016-01-24 12:21:33;22.00;45.60;4.14
2016-01-24 12:26:34;22.00;45.60;4.14
2016-01-24 12:31:35;22.00;45.70;4.14
2016-01-24 12:36:35;22.00;45.90;4.14
2016-01-24 12:41:36;22.00;45.80;4.14
2016-01-24 12:46:37;22.00;47.00;4.14
2016-01-24 12:51:38;22.00;46.40;4.14
2016-01-24 13:09:31;21.20;45.90;4.31
2016-01-24 13:14:32;21.50;46.10;4.14
2016-01-24 13:19:33;21.60;45.60;4.14
2016-01-24 13:24:34;21.70;45.70;4.14
2016-01-24 13:29:35;21.80;45.70;4.14
2016-01-24 13:34:35;21.80;45.50;4.14
2016-01-24 13:39:36;21.80;45.60;4.14
2016-01-24 13:44:37;21.80;45.40;4.14
2016-01-24 13:49:38;21.80;45.40;4.14
2016-01-24 13:54:39;21.80;45.60;4.14
2016-01-24 13:59:40;21.80;45.60;4.14
2016-01-24 14:04:41;21.80;45.60;4.14
2016-01-24 14:09:41;21.80;46.30;4.14
2016-01-24 14:14:42;21.80;46.00;4.14
2016-01-24 14:19:43;21.40;45.40;4.14
2016-01-24 14:24:44;21.60;45.80;4.14
2016-01-24 14:29:45;21.60;45.60;4.14
2016-01-24 14:34:46;21.60;45.70;4.14
2016-01-24 14:39:47;21.60;45.60;4.14
2016-01-24 14:44:48;21.60;45.60;4.14
2016-01-24 14:49:48;21.60;45.70;4.14
2016-01-24 14:54:49;21.60;45.60;4.14
2016-01-24 14:59:50;21.60;45.70;4.14
2016-01-24 15:04:51;21.60;45.60;4.14
2016-01-24 15:09:52;21.60;45.80;4.14
2016-01-24 15:14:53;21.50;45.70;4.14
2016-01-24 15:19:54;21.50;45.60;4.14
2016-01-24 15:24:54;21.50;45.70;4.14
2016-01-24 15:29:55;21.50;45.50;4.14
2016-01-24 15:34:56;21.40;45.60;4.14
2016-01-24 15:39:57;21.40;45.50;4.14
2016-01-24 15:44:58;21.40;45.70;4.14
2016-01-24 15:49:59;21.40;45.60;4.14
2016-01-24 15:55:00;21.40;45.60;4.14
2016-01-24 16:00:01;21.40;45.70;4.14
2016-01-24 16:05:01;21.40;45.70;4.14
2016-01-24 16:10:02;21.40;45.80;4.14
2016-01-24 16:15:03;21.30;45.60;4.14
2016-01-24 16:20:04;21.30;45.80;4.14
2016-01-24 16:25:05;21.30;45.70;4.14
2016-01-24 16:30:06;21.30;45.80;4.14
2016-01-24 16:35:07;21.30;45.90;4.14
2016-01-24 16:40:08;21.20;45.60;4.14
2016-01-24 16:45:08;21.20;45.70;4.14
2016-01-24 16:50:09;21.20;45.70;4.14
2016-01-24 16:55:10;21.20;46.00;4.14
2016-01-24 17:00:11;21.20;46.00;4.14
2016-01-24 17:05:12;21.10;45.90;4.14
2016-01-24 17:10:13;21.10;45.90;4.14
2016-01-24 17:15:14;21.10;45.80;4.14
2016-01-24 17:20:15;21.10;45.90;4.14
2016-01-24 17:25:15;21.10;45.80;4.14
2016-01-24 17:30:16;21.10;45.80;4.14
2016-01-24 17:35:17;21.10;45.70;4.14
2016-01-24 17:40:18;21.10;45.60;4.14
2016-01-24 17:45:19;21.10;45.60;4.14
2016-01-24 17:50:20;21.10;45.60;4.14
2016-01-24 17:55:21;21.10;45.60;4.14
2016-01-24 18:00:22;21.10;45.70;4.14
2016-01-24 18:05:22;21.10;45.70;4.14
2016-01-24 18:10:23;21.10;45.70;4.14
2016-01-24 18:15:24;21.00;45.60;4.14
2016-01-24 18:20:25;21.00;45.60;4.14
2016-01-24 18:25:26;21.00;45.40;4.14
2016-01-24 18:30:27;21.00;45.60;4.14
2016-01-24 18:35:28;21.00;45.60;4.14
2016-01-24 18:40:29;21.00;45.70;4.14
2016-01-24 18:45:29;21.00;45.60;4.14
2016-01-24 18:50:30;20.90;45.50;4.14
2016-01-24 18:55:31;21.00;45.60;4.14
2016-01-24 19:00:32;20.90;45.50;4.14
2016-01-24 19:05:33;20.90;45.60;4.14
2016-01-24 19:10:34;20.90;45.50;4.14
2016-01-24 19:15:35;20.90;45.40;4.14
2016-01-24 19:20:35;20.90;45.40;4.14
2016-01-24 19:25:36;20.90;45.40;4.14
2016-01-24 19:30:37;20.90;45.50;4.14
2016-01-24 19:35:38;20.90;45.40;4.14
2016-01-24 19:40:39;20.90;45.30;4.14
2016-01-24 19:45:40;20.90;45.40;4.14
2016-01-24 19:50:41;20.90;45.30;4.14
2016-01-24 19:55:42;20.90;45.30;4.14
2016-01-24 20:00:42;20.90;45.40;4.14
2016-01-24 20:05:43;20.90;45.30;4.14
2016-01-24 20:10:44;20.90;45.40;4.14
2016-01-24 20:15:45;20.90;45.40;4.14
2016-01-24 20:20:46;20.90;45.40;4.14
2016-01-24 20:25:47;20.90;45.30;4.14
2016-01-24 20:30:48;20.90;45.40;4.14
2016-01-24 20:35:49;20.80;45.40;4.14
2016-01-24 20:40:49;20.80;45.40;4.14
2016-01-24 20:45:50;20.80;45.40;4.14
2016-01-24 20:50:51;20.80;45.30;4.14
2016-01-24 20:55:52;20.90;45.30;4.14
2016-01-24 21:00:53;20.80;45.40;4.14
2016-01-24 21:05:54;20.80;45.40;4.14
2016-01-24 21:10:55;20.80;45.40;4.14
2016-01-24 21:15:55;20.80;45.30;4.14
2016-01-24 21:20:56;20.80;45.40;4.14
2016-01-24 21:25:57;20.80;45.50;4.14
2016-01-24 21:30:58;20.80;45.20;4.14
2016-01-24 21:35:59;20.80;45.30;4.14
2016-01-24 21:41:00;20.80;45.20;4.14
2016-01-24 21:46:01;20.80;45.20;4.14
2016-01-24 21:51:01;20.80;45.10;4.14
2016-01-24 21:56:02;20.80;45.00;4.14
2016-01-24 22:01:03;20.80;45.00;4.14
2016-01-24 22:06:04;20.80;45.00;4.14
2016-01-24 22:11:05;20.80;45.10;4.14
2016-01-24 22:16:06;20.80;45.70;4.14
2016-01-24 22:21:07;20.90;45.80;4.14
2016-01-24 22:26:07;21.00;46.10;4.14
2016-01-24 22:31:08;21.00;46.10;4.14
2016-01-24 22:36:09;21.00;46.30;4.14
2016-01-24 22:41:10;21.10;46.30;4.14
2016-01-24 22:46:11;21.10;46.60;4.14
2016-01-24 22:51:12;21.10;46.40;4.14
2016-01-24 22:56:13;21.10;46.60;4.14
2016-01-24 23:01:14;21.20;46.70;4.14
2016-01-24 23:06:14;21.20;46.70;4.14
2016-01-24 23:11:15;21.20;46.80;4.14
2016-01-24 23:16:16;21.20;46.90;4.14
2016-01-24 23:21:17;21.20;47.00;4.14
2016-01-24 23:26:18;21.20;47.00;4.14
2016-01-24 23:31:19;21.30;47.00;4.14
2016-01-24 23:36:20;21.30;47.00;4.14
2016-01-24 23:41:21;21.40;47.50;4.14
2016-01-24 23:46:21;21.40;46.90;4.14
2016-01-24 23:51:22;21.30;46.90;4.14
2016-01-24 23:56:23;21.30;46.80;4.14
2016-01-25 00:01:24;21.30;46.70;4.14
2016-01-25 00:06:25;21.20;46.40;4.14
2016-01-25 00:11:26;21.20;46.40;4.14
2016-01-25 00:16:27;21.20;46.30;4.14
2016-01-25 00:21:28;21.20;46.40;4.14
2016-01-25 00:26:28;21.20;46.10;4.14
2016-01-25 00:31:29;21.20;46.30;4.14
2016-01-25 00:36:30;21.20;46.10;4.14
2016-01-25 00:41:31;21.20;46.10;4.14
2016-01-25 00:46:32;21.20;46.00;4.14
2016-01-25 00:51:33;21.20;45.80;4.14
2016-01-25 00:56:34;21.20;46.00;4.14
2016-01-25 01:01:34;21.10;46.00;4.14
2016-01-25 01:06:35;21.10;45.90;4.14
2016-01-25 01:11:36;21.10;45.90;4.14
2016-01-25 01:16:37;21.10;45.60;4.14
2016-01-25 01:21:38;21.10;45.80;4.14
2016-01-25 01:26:39;21.10;45.60;4.14
2016-01-25 01:31:40;21.10;45.70;4.14
2016-01-25 01:36:41;21.10;45.60;4.14
2016-01-25 01:41:41;21.10;45.50;4.14
2016-01-25 01:46:42;21.10;45.60;4.14
2016-01-25 01:51:43;21.10;45.60;4.14
2016-01-25 01:56:44;21.10;45.60;4.14
2016-01-25 02:01:45;21.10;45.50;4.14
2016-01-25 02:06:46;21.10;45.50;4.14
2016-01-25 02:11:47;21.10;45.50;4.14
2016-01-25 02:16:48;21.10;45.60;4.14
2016-01-25 02:21:48;21.10;45.40;4.14
2016-01-25 02:26:49;21.10;45.40;4.14
2016-01-25 02:31:50;21.10;45.40;4.14
2016-01-25 02:36:51;21.10;45.40;4.14
2016-01-25 02:41:52;21.10;45.40;4.14
2016-01-25 02:46:53;21.10;45.30;4.14
2016-01-25 02:51:54;21.10;45.30;4.14
2016-01-25 02:56:55;21.10;45.30;4.14
2016-01-25 03:01:55;21.10;45.30;4.14
2016-01-25 03:06:56;21.10;45.30;4.14
2016-01-25 03:11:57;21.10;45.30;4.14
2016-01-25 03:16:58;21.10;45.30;4.14
2016-01-25 03:21:59;21.10;45.30;4.14
2016-01-25 03:27:00;21.10;45.30;4.14
2016-01-25 03:32:01;21.10;45.40;4.14
2016-01-25 03:37:02;21.10;45.30;4.14
2016-01-25 03:42:02;21.10;45.30;4.14
2016-01-25 03:47:03;21.10;45.30;4.14
2016-01-25 03:52:04;21.10;45.40;4.14
2016-01-25 03:57:05;21.10;45.20;4.14
2016-01-25 04:02:06;21.10;45.20;4.14
2016-01-25 04:07:07;21.10;45.30;4.14
2016-01-25 04:12:08;21.10;45.30;4.14
2016-01-25 04:17:09;21.10;45.20;4.14
2016-01-25 04:22:09;21.10;45.20;4.14
2016-01-25 04:27:10;21.10;45.20;4.14
2016-01-25 04:32:11;21.10;45.20;4.14
2016-01-25 04:37:12;21.10;45.10;4.14
2016-01-25 04:42:13;21.10;45.10;4.14
2016-01-25 04:47:14;21.10;45.10;4.14
2016-01-25 04:52:15;21.10;45.00;4.14
2016-01-25 04:57:15;21.10;45.10;4.14
2016-01-25 05:02:16;21.10;45.00;4.14
2016-01-25 05:07:17;21.10;45.20;4.14
2016-01-25 05:12:18;21.10;45.20;4.14
2016-01-25 05:17:19;21.10;45.00;4.14
2016-01-25 05:22:20;21.10;45.00;4.14
2016-01-25 05:27:21;21.10;45.00;4.14
2016-01-25 05:32:22;21.10;45.10;4.14
2016-01-25 05:37:22;21.10;45.00;4.14
2016-01-25 05:42:23;21.10;45.00;4.14
2016-01-25 05:47:24;21.10;44.90;4.14
2016-01-25 05:52:25;21.10;45.10;4.14
2016-01-25 05:57:26;21.10;44.90;4.14
2016-01-25 06:02:27;21.10;45.00;4.14
2016-01-25 06:07:28;21.10;45.00;4.14
2016-01-25 06:12:28;21.10;45.00;4.14
2016-01-25 06:17:29;21.10;45.00;4.14
2016-01-25 06:22:30;21.10;45.00;4.14
2016-01-25 06:27:31;21.10;45.10;4.14
2016-01-25 06:32:32;21.10;44.90;4.14
2016-01-25 06:37:33;21.10;44.90;4.14
2016-01-25 06:42:34;21.10;45.00;4.14
2016-01-25 06:47:35;21.10;44.90;4.14
2016-01-25 06:52:35;21.10;45.00;4.14
2016-01-25 06:57:36;21.10;44.90;4.14
2016-01-25 07:02:37;21.10;44.90;4.14
2016-01-25 07:07:38;21.10;44.90;4.14
2016-01-25 07:12:39;21.10;44.90;4.14
2016-01-25 07:17:40;21.20;45.20;4.14
2016-01-25 07:22:41;21.20;45.50;4.14
2016-01-25 07:27:41;21.30;45.70;4.14
2016-01-25 07:32:42;21.30;46.10;4.14
2016-01-25 07:37:43;21.40;46.50;4.14
2016-01-25 07:42:44;21.40;46.40;4.14
2016-01-25 07:47:45;21.40;46.60;4.14
2016-01-25 07:52:46;21.40;46.60;4.14
2016-01-25 07:57:47;21.50;47.10;4.14
2016-01-25 08:02:48;21.50;47.10;4.14
2016-01-25 08:07:48;21.60;47.00;4.14
2016-01-25 08:12:49;21.60;46.80;4.14
2016-01-25 08:17:50;21.60;47.00;4.14
2016-01-25 08:22:51;21.30;45.30;4.14
2016-01-25 08:27:52;21.30;47.00;4.14
2016-01-25 08:32:53;21.40;47.00;4.14
2016-01-25 08:37:54;21.40;46.80;4.14
2016-01-25 08:42:55;21.40;46.90;4.14
2016-01-25 08:47:56;21.40;46.90;4.14
2016-01-25 08:52:56;21.40;47.00;4.14
2016-01-25 08:57:57;21.40;46.90;4.14
2016-01-25 09:02:58;21.40;46.80;4.14
2016-01-25 09:07:59;21.40;46.90;4.14
2016-01-25 09:13:00;21.40;47.00;4.14
2016-01-25 09:18:01;21.40;46.80;4.14
2016-01-25 09:23:02;21.40;46.90;4.14
2016-01-25 09:28:03;21.40;46.90;4.14
2016-01-25 09:33:04;21.40;47.00;4.14
2016-01-25 09:38:04;21.40;47.00;4.14
2016-01-25 09:43:05;21.40;47.10;4.14
2016-01-25 09:48:06;21.30;47.00;4.14
2016-01-25 09:53:07;21.30;47.00;4.14
2016-01-25 09:58:08;21.30;47.00;4.14
2016-01-25 10:03:09;21.30;47.00;4.14
2016-01-25 10:08:10;21.30;47.00;4.14
2016-01-25 10:13:11;21.30;47.00;4.14
2016-01-25 10:18:11;21.30;47.00;4.14
2016-01-25 10:23:12;21.40;47.00;4.14
2016-01-25 10:28:13;21.30;47.00;4.14
2016-01-25 10:33:14;21.30;46.90;4.14
2016-01-25 10:38:15;21.30;46.90;4.14
2016-01-25 10:43:16;21.30;47.00;4.14
2016-01-25 10:48:17;21.30;46.90;4.14
2016-01-25 10:53:18;21.40;46.90;4.14
2016-01-25 10:58:19;21.40;47.00;4.14
2016-01-25 11:03:19;21.30;46.90;4.14
2016-01-25 11:08:20;21.30;46.90;4.14
2016-01-25 11:13:21;21.30;46.80;4.14
2016-01-25 11:18:22;21.40;46.90;4.14
2016-01-25 11:23:23;21.30;46.90;4.14
2016-01-25 11:28:24;21.30;46.90;4.14
2016-01-25 11:33:25;21.30;47.00;4.14
2016-01-25 11:38:26;21.40;47.10;4.14
2016-01-25 11:43:26;21.30;46.80;4.14
2016-01-25 11:48:27;21.30;46.90;4.14
2016-01-25 11:53:28;21.40;46.90;4.14
2016-01-25 11:58:29;21.40;46.90;4.14
2016-01-25 12:03:30;21.40;46.90;4.14
2016-01-25 12:08:31;21.40;46.90;4.14
2016-01-25 12:13:32;21.40;46.80;4.14
2016-01-25 12:18:33;21.40;46.90;4.14
2016-01-25 12:23:34;21.40;46.80;4.14
2016-01-25 12:28:34;21.40;46.80;4.14
2016-01-25 12:33:35;21.40;46.90;4.14
2016-01-25 12:38:36;21.40;46.80;4.14
2016-01-25 12:43:37;21.40;46.80;4.14
2016-01-25 12:48:38;21.40;46.70;4.14
2016-01-25 12:53:39;21.40;46.60;4.14
2016-01-25 12:58:40;21.40;46.70;4.14
2016-01-25 13:03:41;21.40;46.70;4.14
2016-01-25 13:08:41;21.40;46.70;4.14
2016-01-25 13:13:42;21.40;46.70;4.14
2016-01-25 13:18:43;21.40;46.70;4.14
2016-01-25 13:23:44;21.40;46.60;4.14
2016-01-25 13:28:45;21.40;46.60;4.14
2016-01-25 13:33:46;21.30;46.30;4.14
2016-01-25 13:38:47;21.40;47.80;4.14
2016-01-25 13:43:48;21.40;47.10;4.14
2016-01-25 13:48:49;21.50;47.40;4.14
2016-01-25 13:53:49;21.50;47.30;4.14
2016-01-25 13:58:50;21.50;47.40;4.14
2016-01-25 14:03:51;21.50;47.30;4.14
2016-01-25 14:08:52;21.50;47.30;4.14
2016-01-25 14:13:53;21.50;47.40;4.14
2016-01-25 14:18:54;21.50;47.40;4.14
2016-01-25 14:23:55;21.50;47.70;4.14
2016-01-25 14:28:56;21.50;47.60;4.14
2016-01-25 14:33:57;21.50;47.70;4.14
2016-01-25 14:38:57;21.50;47.70;4.14
2016-01-25 14:43:58;21.50;47.60;4.14
2016-01-25 14:48:59;21.50;47.50;4.14
2016-01-25 14:54:00;21.50;47.60;4.14
2016-01-25 14:59:01;21.50;47.50;4.14
2016-01-25 15:04:02;21.50;47.50;4.14
2016-01-25 15:09:03;21.50;47.50;4.14
2016-01-25 15:14:04;21.50;47.50;4.14
2016-01-25 15:19:05;21.60;47.50;4.14
2016-01-25 15:24:05;21.60;47.70;4.14
2016-01-25 15:29:06;21.60;47.50;4.14
2016-01-25 15:34:07;21.60;47.30;4.14
2016-01-25 15:39:08;21.60;47.20;4.14
2016-01-25 15:44:09;21.60;47.50;4.14
2016-01-25 15:49:10;21.60;47.40;4.14
2016-01-25 15:54:11;21.60;47.40;4.14
2016-01-25 15:59:12;21.60;47.30;4.14
2016-01-25 16:04:12;21.60;47.30;4.14
2016-01-25 16:09:13;21.60;47.30;4.14
2016-01-25 16:14:14;21.60;47.30;4.14
2016-01-25 16:19:15;21.60;47.30;4.14
2016-01-25 16:24:16;21.60;47.30;4.14
2016-01-25 16:29:17;21.60;47.40;4.14
2016-01-25 16:34:18;21.60;47.30;4.14
2016-01-25 16:39:19;21.60;47.40;4.14
2016-01-25 16:44:20;21.60;47.40;4.14
2016-01-25 16:49:20;21.60;47.50;4.14
2016-01-25 16:54:21;21.60;47.50;4.14
2016-01-25 16:59:22;21.60;47.50;4.14
2016-01-25 17:04:23;21.60;47.50;4.14
2016-01-25 17:09:24;21.50;47.80;4.14
2016-01-25 17:14:25;21.40;46.90;4.14
2016-01-25 17:19:26;21.30;47.60;4.14
2016-01-25 17:24:27;21.40;47.60;4.14
2016-01-25 17:29:27;21.40;47.30;4.14
2016-01-25 17:34:28;21.50;47.60;4.14
2016-01-25 17:39:29;21.50;47.60;4.14
2016-01-25 17:44:30;21.40;47.30;4.14
2016-01-25 17:49:31;21.40;47.40;4.14
2016-01-25 17:54:32;21.40;47.40;4.14
2016-01-25 17:59:33;21.40;47.40;4.14
2016-01-25 18:04:34;21.40;47.30;4.14
2016-01-25 18:09:35;21.40;47.30;4.14
2016-01-25 18:14:35;21.40;47.40;4.14
2016-01-25 18:19:36;21.40;47.40;4.14
2016-01-25 18:24:37;21.40;47.40;4.14
2016-01-25 18:29:38;21.40;47.30;4.14
2016-01-25 18:34:39;21.40;47.30;4.14
2016-01-25 18:39:40;21.40;47.40;4.14
2016-01-25 18:44:41;21.40;47.40;4.14
2016-01-25 18:49:42;21.30;47.50;4.14
2016-01-25 18:54:42;21.30;47.40;4.14
2016-01-25 18:59:43;21.30;47.40;4.14
2016-01-25 19:04:44;21.30;47.50;4.14
2016-01-25 19:09:45;21.30;47.60;4.14
2016-01-25 19:14:46;21.30;47.60;4.14
2016-01-25 19:19:47;21.30;47.40;4.14
2016-01-25 19:24:48;21.30;47.40;4.14
2016-01-25 19:29:49;21.30;47.30;4.14
2016-01-25 19:34:50;21.30;47.30;4.14
2016-01-25 19:39:50;21.30;47.30;4.14
2016-01-25 19:44:51;21.30;47.30;4.14
2016-01-25 19:49:52;21.10;47.00;4.14
2016-01-25 19:54:53;21.20;47.60;4.14
2016-01-25 19:59:54;21.30;47.60;4.14
2016-01-25 20:04:55;21.40;47.80;4.14
2016-01-25 20:09:56;21.40;47.70;4.14
2016-01-25 20:14:57;21.40;47.70;4.14
2016-01-25 20:19:57;21.40;47.90;4.14
2016-01-25 20:24:58;21.40;47.90;4.14
2016-01-25 20:29:59;21.40;48.10;4.14
2016-01-25 20:35:00;21.40;47.90;4.14
2016-01-25 20:40:01;21.50;48.00;4.14
2016-01-25 20:45:02;21.40;47.90;4.14
2016-01-25 20:50:03;21.50;47.80;4.14
2016-01-25 20:55:04;21.50;48.00;4.14
2016-01-25 21:00:05;21.50;47.90;4.14
2016-01-25 21:05:06;21.50;47.80;4.14
2016-01-25 21:10:06;21.50;47.80;4.14
2016-01-25 21:15:07;21.50;47.70;4.14
2016-01-25 21:20:08;21.50;47.60;4.14
2016-01-25 21:25:09;21.50;47.80;4.14
2016-01-25 21:30:10;21.50;47.70;4.14
2016-01-25 21:35:11;21.50;47.70;4.14
2016-01-25 21:40:12;21.50;47.90;4.14
2016-01-25 21:45:13;21.50;47.80;4.14
2016-01-25 21:50:14;21.50;47.80;4.14
2016-01-25 21:55:15;21.50;47.80;4.14
2016-01-25 22:00:15;21.50;47.90;4.14
2016-01-25 22:05:16;21.60;48.00;4.14
2016-01-25 22:10:17;21.60;48.00;4.14
2016-01-25 22:15:18;21.50;48.00;4.14
2016-01-25 22:20:19;21.60;48.00;4.14
2016-01-25 22:25:20;21.60;48.00;4.14
2016-01-25 22:30:21;21.60;47.90;4.14
2016-01-25 22:35:22;21.60;47.80;4.14
2016-01-25 22:40:23;21.60;47.70;4.14
2016-01-25 22:45:23;21.50;47.70;4.14
2016-01-25 22:50:24;21.50;47.70;4.14
2016-01-25 22:55:25;21.50;47.70;4.14
2016-01-25 23:00:26;21.50;47.80;4.14
2016-01-25 23:05:27;21.50;47.70;4.14
2016-01-25 23:10:28;21.40;47.70;4.14
2016-01-25 23:15:29;21.40;47.70;4.14
2016-01-25 23:20:30;21.40;47.70;4.14
2016-01-25 23:25:31;21.40;47.80;4.14
2016-01-25 23:30:31;21.40;47.70;4.14
2016-01-25 23:35:32;21.40;47.70;4.14
2016-01-25 23:40:33;21.40;47.70;4.14
2016-01-25 23:45:34;21.40;47.70;4.14
2016-01-25 23:50:35;21.40;47.80;4.14
2016-01-25 23:55:36;21.40;47.60;4.14
2016-01-26 00:00:37;21.30;47.70;4.14
2016-01-26 00:05:38;21.30;47.70;4.14
2016-01-26 00:10:39;21.30;47.60;4.14
2016-01-26 00:15:40;21.30;47.70;4.14
2016-01-26 00:20:40;21.30;47.70;4.14
2016-01-26 00:25:41;21.30;47.80;4.14
2016-01-26 00:30:42;21.30;47.80;4.14
2016-01-26 00:35:43;21.30;47.70;4.14
2016-01-26 00:40:44;21.30;47.90;4.14
2016-01-26 00:45:45;21.30;47.80;4.14
2016-01-26 00:50:46;21.30;47.80;4.14
2016-01-26 00:55:47;21.30;47.80;4.14
2016-01-26 01:00:48;21.30;47.70;4.14
2016-01-26 01:05:48;21.30;47.70;4.14
2016-01-26 01:10:49;21.30;47.80;4.14
2016-01-26 01:15:50;21.30;47.90;4.14
2016-01-26 01:20:51;21.30;47.80;4.14
2016-01-26 01:25:52;21.20;47.90;4.14
2016-01-26 01:30:53;21.20;47.70;4.14
2016-01-26 01:35:54;21.20;47.70;4.14
2016-01-26 01:40:55;21.20;47.80;4.14
2016-01-26 01:45:56;21.20;47.70;4.14
2016-01-26 01:50:56;21.20;47.70;4.14
2016-01-26 01:55:57;21.20;47.70;4.14
2016-01-26 02:00:58;21.20;47.80;4.14
2016-01-26 02:05:59;21.20;47.60;4.14
2016-01-26 02:11:00;21.20;47.80;4.14
2016-01-26 02:16:01;21.20;47.70;4.14
2016-01-26 02:21:02;21.20;47.60;4.14
2016-01-26 02:26:03;21.20;47.60;4.14
2016-01-26 02:31:03;21.20;47.60;4.14
2016-01-26 02:36:04;21.20;47.60;4.14
2016-01-26 02:41:05;21.20;47.70;4.14
2016-01-26 02:46:06;21.20;47.60;4.14
2016-01-26 02:51:07;21.20;47.60;4.14
2016-01-26 02:56:08;21.20;47.70;4.14
2016-01-26 03:01:09;21.20;47.70;4.14
2016-01-26 03:06:10;21.20;47.70;4.14
2016-01-26 03:11:10;21.20;47.60;4.14
2016-01-26 03:16:11;21.20;47.70;4.14
2016-01-26 03:21:12;21.20;47.70;4.14
2016-01-26 03:26:13;21.20;47.70;4.14
2016-01-26 03:31:14;21.20;47.80;4.14
2016-01-26 03:36:15;21.20;47.70;4.14
2016-01-26 03:41:16;21.20;47.70;4.14
2016-01-26 03:46:17;21.20;47.70;4.14
2016-01-26 03:51:18;21.20;47.80;4.14
2016-01-26 03:56:18;21.20;47.80;4.14
2016-01-26 04:01:19;21.20;47.70;4.14
2016-01-26 04:06:20;21.20;47.80;4.14
2016-01-26 04:11:21;21.20;47.80;4.14
2016-01-26 04:16:22;21.20;47.90;4.14
2016-01-26 04:21:23;21.20;47.70;4.14
2016-01-26 04:26:24;21.20;47.70;4.14
2016-01-26 04:31:25;21.20;47.70;4.14
2016-01-26 04:36:25;21.20;47.90;4.14
2016-01-26 04:41:26;21.20;47.80;4.14
2016-01-26 04:46:27;21.20;47.90;4.14
2016-01-26 04:51:28;21.20;47.80;4.14
2016-01-26 04:56:29;21.20;47.80;4.14
2016-01-26 05:01:30;21.20;47.80;4.14
2016-01-26 05:06:31;21.20;47.80;4.14
2016-01-26 05:11:32;21.20;47.80;4.14
2016-01-26 05:16:33;21.20;47.90;4.14
2016-01-26 05:21:33;21.20;47.80;4.14
2016-01-26 05:26:34;21.20;47.90;4.14
2016-01-26 05:31:35;21.20;48.00;4.14
2016-01-26 05:36:36;21.20;47.90;4.14
2016-01-26 05:41:37;21.20;47.90;4.14
2016-01-26 05:46:38;21.20;47.80;4.14
2016-01-26 05:51:39;21.20;47.90;4.14
2016-01-26 05:56:40;21.20;47.90;4.14
2016-01-26 06:01:41;21.20;47.90;4.14
2016-01-26 06:06:41;21.20;47.80;4.14
2016-01-26 06:11:42;21.20;47.90;4.14
2016-01-26 06:16:43;21.10;48.00;4.14
2016-01-26 06:21:44;21.20;48.00;4.14
2016-01-26 06:26:45;21.20;47.90;4.14
2016-01-26 06:31:46;21.20;47.80;4.14
2016-01-26 06:36:47;21.20;47.90;4.14
2016-01-26 06:41:48;21.10;47.80;4.14
2016-01-26 06:46:48;21.20;47.90;4.14
2016-01-26 06:51:49;21.20;47.90;4.14
2016-01-26 06:56:50;21.20;48.00;4.14
2016-01-26 07:01:51;21.20;48.00;4.14
2016-01-26 07:06:52;21.20;48.00;4.14
2016-01-26 07:11:53;21.20;48.00;4.14
2016-01-26 07:16:54;21.20;48.10;4.14
2016-01-26 07:21:55;21.20;48.10;4.14
2016-01-26 07:26:55;21.20;48.10;4.14
2016-01-26 07:31:56;21.20;48.10;4.14
2016-01-26 07:36:57;21.20;48.50;4.14
2016-01-26 07:41:58;21.20;49.10;4.14
2016-01-26 07:46:59;21.20;49.40;4.14
2016-01-26 07:52:00;21.20;49.50;4.14
2016-01-26 07:57:01;21.20;49.30;4.14
2016-01-26 08:02:02;21.20;49.40;4.14
2016-01-26 08:07:03;21.20;48.80;4.14
2016-01-26 08:12:03;21.20;48.70;4.14
2016-01-26 08:17:04;21.20;48.40;4.14
2016-01-26 08:22:05;21.20;48.30;4.14
2016-01-26 08:27:06;20.90;47.60;4.14
2016-01-26 08:32:07;21.10;48.50;4.14
2016-01-26 08:37:08;21.10;48.30;4.14
2016-01-26 08:42:09;21.10;48.10;4.14
2016-01-26 08:47:10;21.10;48.10;4.14
2016-01-26 08:52:10;21.10;48.00;4.14
2016-01-26 08:57:11;21.10;48.00;4.14
2016-01-26 09:02:12;21.10;48.00;4.14
2016-01-26 09:07:13;21.10;47.90;4.14
2016-01-26 09:12:14;21.10;47.80;4.14
2016-01-26 09:17:15;21.10;47.70;4.14
2016-01-26 09:22:16;21.10;47.80;4.14
2016-01-26 09:27:17;21.10;47.70;4.14
2016-01-26 09:32:18;21.00;47.60;4.14
2016-01-26 09:37:18;21.00;47.50;4.14
2016-01-26 09:42:19;21.00;47.40;4.14
2016-01-26 09:47:20;21.10;47.30;4.14
2016-01-26 09:52:21;21.10;47.20;4.14
2016-01-26 09:57:22;21.10;47.10;4.14
2016-01-26 10:02:23;21.10;47.10;4.14
2016-01-26 10:07:24;21.10;47.00;4.14
2016-01-26 10:12:25;21.10;46.70;4.14
2016-01-26 10:17:25;21.20;46.70;4.14
2016-01-26 10:22:26;21.10;46.60;4.14
2016-01-26 10:27:27;21.20;46.20;4.14
2016-01-26 10:32:28;21.20;46.30;4.14
2016-01-26 10:37:29;21.20;46.30;4.14
2016-01-26 10:42:30;21.20;46.00;4.14
2016-01-26 10:47:31;21.30;46.00;4.14
2016-01-26 10:52:32;21.40;45.90;4.14
2016-01-26 10:57:32;21.40;45.70;4.14
2016-01-26 11:02:33;21.40;45.70;4.14
2016-01-26 11:07:34;21.40;45.70;4.14
2016-01-26 11:12:35;21.30;45.70;4.14
2016-01-26 11:17:36;21.30;45.90;4.14
2016-01-26 11:22:37;21.30;45.90;4.14
2016-01-26 11:27:38;21.20;45.70;4.14
2016-01-26 11:32:39;21.20;45.70;4.14
2016-01-26 11:37:39;21.30;45.60;4.14
2016-01-26 11:42:40;21.30;45.40;4.14
2016-01-26 11:47:41;21.40;45.20;4.14
2016-01-26 11:52:42;21.40;45.20;4.14
2016-01-26 11:57:43;21.50;45.10;4.14
2016-01-26 12:02:44;21.50;45.10;4.14
2016-01-26 12:07:45;21.50;44.80;4.14
2016-01-26 12:12:46;21.50;44.60;4.14
2016-01-26 12:17:46;21.40;44.20;4.14
2016-01-26 12:22:47;21.40;44.20;4.14
2016-01-26 12:27:48;21.30;44.40;4.14
2016-01-26 12:32:49;21.30;44.10;4.14
2016-01-26 12:37:50;21.30;44.90;4.14
2016-01-26 12:42:51;21.30;45.00;4.14
2016-01-26 12:47:52;21.30;44.50;4.14
2016-01-26 12:52:53;21.40;46.50;4.14
2016-01-26 12:57:53;21.50;45.70;4.14
2016-01-26 13:02:54;21.40;45.50;4.14
2016-01-26 13:07:55;21.40;45.90;4.14
2016-01-26 13:12:56;21.50;45.40;4.14
2016-01-26 13:17:57;21.60;45.30;4.14
2016-01-26 13:22:58;21.70;45.20;4.14
2016-01-26 13:27:59;21.70;45.50;4.14
2016-01-26 13:33:00;21.70;45.60;4.14
2016-01-26 13:38:00;21.90;54.50;4.14
2016-01-26 13:43:01;22.20;50.40;4.14
2016-01-26 13:48:02;22.40;52.40;4.14
2016-01-26 13:53:03;22.50;50.20;4.14
2016-01-26 13:58:04;22.60;47.60;4.14
2016-01-26 14:03:05;22.60;46.90;4.14
2016-01-26 14:08:06;22.70;47.10;4.14
2016-01-26 14:13:07;22.60;46.90;4.14
2016-01-26 14:18:08;22.80;47.00;4.14
2016-01-26 14:23:08;22.70;47.10;4.14
2016-01-26 14:28:09;22.40;47.00;4.14
2016-01-26 14:33:10;22.30;47.50;4.14
2016-01-26 14:38:11;22.30;47.40;4.14
2016-01-26 14:43:12;22.20;46.80;4.14
2016-01-26 14:48:13;22.20;47.20;4.14
2016-01-26 14:53:14;22.10;46.90;4.14
2016-01-26 14:58:15;22.00;47.00;4.14
2016-01-26 15:03:16;21.90;47.10;4.14
2016-01-26 15:08:16;21.80;47.30;4.14
2016-01-26 15:13:17;21.80;47.10;4.14
2016-01-26 15:18:18;21.80;47.20;4.14
2016-01-26 15:23:19;21.70;47.00;4.14
2016-01-26 15:28:20;21.70;46.80;4.14
2016-01-26 15:33:21;21.70;46.80;4.14
2016-01-26 15:38:22;21.60;46.70;4.14
2016-01-26 15:43:23;21.60;46.60;4.14
2016-01-26 15:48:23;21.60;46.50;4.14
2016-01-26 15:53:24;21.60;46.40;4.14
2016-01-26 15:58:25;21.60;46.50;4.14
2016-01-26 16:03:26;21.60;46.50;4.14
2016-01-26 16:08:27;21.50;46.40;4.14
2016-01-26 16:13:28;21.50;46.30;4.14
2016-01-26 16:18:29;21.50;46.30;4.14
2016-01-26 16:23:30;21.40;46.00;4.14
2016-01-26 16:28:31;21.40;46.00;4.14
2016-01-26 16:33:31;21.40;46.10;4.14
2016-01-26 16:38:32;21.40;46.10;4.14
2016-01-26 16:43:33;21.30;45.90;4.14
2016-01-26 16:48:34;21.30;45.90;4.14
2016-01-26 16:53:35;21.30;45.90;4.14
2016-01-26 16:58:36;21.30;45.90;4.14
2016-01-26 17:03:37;21.30;46.10;4.15
2016-01-26 17:08:38;21.30;45.40;4.14
2016-01-26 17:13:38;21.20;45.50;4.14
2016-01-26 17:18:39;21.20;44.50;4.14
2016-01-26 17:23:40;21.10;44.30;4.14
2016-01-26 17:28:41;21.00;44.20;4.14
2016-01-26 17:33:42;21.00;44.00;4.14
2016-01-26 17:38:43;21.00;44.30;4.14
2016-01-26 17:43:44;21.00;44.30;4.14
2016-01-26 17:48:45;21.10;44.60;4.14
2016-01-26 17:53:45;21.10;44.40;4.14
2016-01-26 17:58:46;21.10;44.40;4.14
2016-01-26 18:03:47;21.10;44.60;4.14
2016-01-26 18:08:48;21.10;44.20;4.14
2016-01-26 18:13:49;21.20;44.40;4.14
2016-01-26 18:18:50;21.20;44.20;4.14
2016-01-26 18:23:51;21.20;44.30;4.14
2016-01-26 18:28:52;21.20;44.20;4.14
2016-01-26 18:33:52;21.30;44.30;4.14
2016-01-26 18:38:53;21.20;44.00;4.14
2016-01-26 18:43:54;21.30;44.10;4.14
2016-01-26 18:48:55;21.30;44.10;4.14
2016-01-26 18:53:56;21.30;43.90;4.14
2016-01-26 18:58:57;21.30;44.10;4.15
2016-01-26 19:03:58;21.50;46.40;4.12
